Order ID Generation Script :::::  Successfully Created Order IDs for Wholesale_TestData:::null
EBS_NTB_TC_02 :::::  We are searching the status for :::Order ID 1579073217
EBS_NTB_TC_02 :::::  We are searching the status for :::Order ID 1579073217
EBS_NTB_TC_02 :::::  We are searching the status for :::Order ID 1579073217
EBS_NTB_TC_02 :::::  We are searching the status for :::Order ID 1579073217
EBS_NTB_TC_02 :::::  We are searching the status for :::Order ID 1579073217
EBS_NTB_TC_02 :::::  We are searching the status for :::Order ID 1579073217
EBS_NTB_TC_02 :::::  We are searching the status for :::Order ID 1579073217
EBS_NTB_TC_02 :::::  We are searching the status for :::Order ID 1579073217
EBS_NTB_TC_02 :::::  We are searching the status for :::Order ID 1579073217
EBS_NTB_TC_02 :::::  We are searching the status for :::Order ID 1579073217
EBS_NTB_TC_02 :::::  We are searching the status for :::Order ID 1579073217
EBS_NTB_TC_02 :::::  We are searching the status for :::Order ID 1579073217
EBS_NTB_TC_02 :::::  We are searching the status for :::Order ID 1579073217
